…
```r
# Had an arrival delay of two or more hours (> 120 minutes)
flights %>% 
  filter(arr_delay >= 2)
```

```
## # A tibble: 127,929 × 19
##     year month   day dep_time sched_dep_time dep_delay arr_time sched_arr_time
##    <int> <int> <int>    <int>          <int>     <dbl>    <int>          <int>
##  1  2013     1     1      517            515         2      830            819
##  2  2013     1     1      533            529         4      850            830
##  3  2013     1     1      542            540         2      923            850
##  4  2013     1     1      554            558        -4      740            728
##  5  2013     1     1      555            600        -5      913            854
##  6  2013     1     1      558            600        -2      753            745
##  7  2013     1     1      558            600        -2      924            917
##  8  2013     1     1      559            600        -1      941            910
##  9  2013     1     1      600            600         0      837            825
## 10  2013     1     1      602            605        -3      821            805
## # ℹ 127,919 more rows
## # ℹ 11 more variables: arr_delay <dbl>, carrier <chr>, flight <int>,
## #   tailnum <chr>, origin <chr>, dest <chr>, air_time <dbl>, distance <dbl>,
## #   hour <dbl>, minute <dbl>, time_hour <dttm>
```
…
```
## The month with the minimum percentage of cancelled flights was: October
```
Problem 3: What plane (specified by the tailnum variable) traveled the most times from New York City airports in 2013? Please left_join() the resulting table with the table planes (also included in the nycflights13 package).


```
## [1] "N328AA"
```

```
## # A tibble: 393 × 19
##     year month   day dep_time sched_dep_time dep_delay arr_time sched_arr_time
##    <int> <int> <int>    <int>          <int>     <dbl>    <int>          <int>
##  1  2013     1     1     1026           1030        -4     1351           1340
##  2  2013     1     2     1038           1030         8     1347           1340
##  3  2013     1     3     1152           1200        -8     1446           1510
##  4  2013     1     4      858            900        -2     1210           1220
##  5  2013     1     5      851            900        -9     1206           1220
##  6  2013     1     6     1027           1030        -3     1335           1340
##  7  2013     1     7      724            730        -6     1008           1100
##  8  2013     1     7     2134           2135        -1       19             50
##  9  2013     1     8     2130           2135        -5      114             50
## 10  2013     1     9     1701           1645        16     1958           2005
## # ℹ 383 more rows
## # ℹ 11 more variables: arr_delay <dbl>, carrier <chr>, flight <int>,
## #   tailnum <chr>, origin <chr>, dest <chr>, air_time <dbl>, distance <dbl>,
## #   hour <dbl>, minute <dbl>, time_hour <dttm>
```
…
