…
Generate a data frame that summarizes the number of mass shootings per year.


```r
# Group the data by year and count the number of shootings
shootings_per_year <- mass_shootings %>%
  group_by(year) %>%
  summarise(Shootings = n())

# View the resulting data frame
print(shootings_per_year)
```

```
## # A tibble: 37 × 2
##     year Shootings
##    <dbl>     <int>
##  1  1982         1
##  2  1984         2
##  3  1986         1
##  4  1987         1
##  5  1988         1
##  6  1989         2
##  7  1990         1
##  8  1991         3
##  9  1992         2
## 10  1993         4
## # ℹ 27 more rows
```
…
